<?xml version="1.0" encoding="UTF-8" standalone="no" ?>
<gpx xmlns="http://www.topografix.com/GPX/1/1" xmlns:gpxx="http://www.garmin.com/xmlschemas/GpxExtensions/v3" xmlns:gpxtpx="http://www.garmin.com/xmlschemas/TrackPointExtension/v1" creator="mapstogpx.com" version="1.1" xmlns:xsi="http://www.w3.org/2001/XMLSchema-instance" xsi:schemaLocation="http://www.topografix.com/GPX/1/1 http://www.topografix.com/GPX/1/1/gpx.xsd http://www.garmin.com/xmlschemas/GpxExtensions/v3 http://www.garmin.com/xmlschemas/GpxExtensionsv3.xsd http://www.garmin.com/xmlschemas/TrackPointExtension/v1 http://www.garmin.com/xmlschemas/TrackPointExtensionv1.xsd">
  <metadata>
    <link href="http://www.mapstogpx.com">
      <text>Sverrir Sigmundarson</text>
    </link>
    <!--desc>Map data copyright 2016 Google</desc-->
    <!--copyright author="Google Inc">
    	<year>2016</year>
    	<license>https://developers.google.com/maps/terms</license>
    </copyright-->
    <!--url>https://www.google.com.br/maps/dir/UNIFOR+-+Universidade+de+Fortaleza+-+Avenida+Washington+Soares+-+Edson+Queiroz,+Fortaleza+-+State+of+Cear%C3%A1/Av.+Santos+Dumont,+7785+-+Manoel+Dias+Branco,+Fortaleza+-+CE/@-3.7553719,-38.4773645,15z/am=t/data=!3m1!4b1!4m13!4m12!1m5!1m1!1s0x7c745fe9c03245d:0xd435fd5a6bfbbe44!2m2!1d-38.4816098!2d-3.7688874!1m5!1m1!1s0x7c7464489d90ad5:0x76fe9a6cdcc12ed8!2m2!1d-38.4558325!2d-3.7495535?hl=en&shorturl=1&dg=dbrw&newdg=1&hl=en</url-->
    <time>2016-12-09T09:27:27Z</time>
  </metadata>
  <wpt lat="-3.769216" lon="-38.4820233">
    <name>WP001</name>
  </wpt>
  <wpt lat="-3.7690191100455" lon="-38.482042913568">
    <name>WP002</name>
  </wpt>
  <wpt lat="-3.7688222200909" lon="-38.482062527135">
    <name>WP003</name>
  </wpt>
  <wpt lat="-3.7686253301364" lon="-38.482082140703">
    <name>WP004</name>
  </wpt>
  <wpt lat="-3.7684284401819" lon="-38.482101754271">
    <name>WP005</name>
  </wpt>
  <wpt lat="-3.7682315502274" lon="-38.482121367838">
    <name>WP006</name>
  </wpt>
  <wpt lat="-3.7680346602728" lon="-38.482140981406">
    <name>WP007</name>
  </wpt>
  <wpt lat="-3.7678377703183" lon="-38.482160594974">
    <name>WP008</name>
  </wpt>
  <wpt lat="-3.7676408803638" lon="-38.482180208542">
    <name>WP009</name>
  </wpt>
  <wpt lat="-3.7674439904093" lon="-38.482199822109">
    <name>WP010</name>
  </wpt>
  <wpt lat="-3.7672471004547" lon="-38.482219435677">
    <name>WP011</name>
  </wpt>
  <wpt lat="-3.7670502105002" lon="-38.482239049245">
    <name>WP012</name>
  </wpt>
  <wpt lat="-3.7668533205457" lon="-38.482258662812">
    <name>WP013</name>
  </wpt>
  <wpt lat="-3.7666564305912" lon="-38.48227827638">
    <name>WP014</name>
  </wpt>
  <wpt lat="-3.7664595406366" lon="-38.482297889948">
    <name>WP015</name>
  </wpt>
  <wpt lat="-3.7662626506821" lon="-38.482317503515">
    <name>WP016</name>
  </wpt>
  <wpt lat="-3.7660657607276" lon="-38.482337117083">
    <name>WP017</name>
  </wpt>
  <wpt lat="-3.7658688707731" lon="-38.482356730651">
    <name>WP018</name>
  </wpt>
  <wpt lat="-3.7656719808185" lon="-38.482376344218">
    <name>WP019</name>
  </wpt>
  <wpt lat="-3.765475090864" lon="-38.482395957786">
    <name>WP020</name>
  </wpt>
  <wpt lat="-3.7652782009095" lon="-38.482415571354">
    <name>WP021</name>
  </wpt>
  <wpt lat="-3.765081310955" lon="-38.482435184922">
    <name>WP022</name>
  </wpt>
  <wpt lat="-3.7648844210004" lon="-38.482454798489">
    <name>WP023</name>
  </wpt>
  <wpt lat="-3.7646875310459" lon="-38.482474412057">
    <name>WP024</name>
  </wpt>
  <wpt lat="-3.7644906410914" lon="-38.482494025625">
    <name>WP025</name>
  </wpt>
  <wpt lat="-3.7642937511369" lon="-38.482513639192">
    <name>WP026</name>
  </wpt>
  <wpt lat="-3.7640968611823" lon="-38.48253325276">
    <name>WP027</name>
  </wpt>
  <wpt lat="-3.7638999712278" lon="-38.482552866328">
    <name>WP028</name>
  </wpt>
  <wpt lat="-3.7637030812733" lon="-38.482572479895">
    <name>WP029</name>
  </wpt>
  <wpt lat="-3.7635061913188" lon="-38.482592093463">
    <name>WP030</name>
  </wpt>
  <wpt lat="-3.7633093013642" lon="-38.482611707031">
    <name>WP031</name>
  </wpt>
  <wpt lat="-3.7631124114097" lon="-38.482631320598">
    <name>WP032</name>
  </wpt>
  <wpt lat="-3.7629155214552" lon="-38.482650934166">
    <name>WP033</name>
  </wpt>
  <wpt lat="-3.7627186315007" lon="-38.482670547734">
    <name>WP034</name>
  </wpt>
  <wpt lat="-3.7625217415461" lon="-38.482690161302">
    <name>WP035</name>
  </wpt>
  <wpt lat="-3.7623248515916" lon="-38.482709774869">
    <name>WP036</name>
  </wpt>
  <wpt lat="-3.7621279616371" lon="-38.482729388437">
    <name>WP037</name>
  </wpt>
  <wpt lat="-3.7619310716825" lon="-38.482749002005">
    <name>WP038</name>
  </wpt>
  <wpt lat="-3.761734181728" lon="-38.482768615572">
    <name>WP039</name>
  </wpt>
  <wpt lat="-3.7615372917735" lon="-38.48278822914">
    <name>WP040</name>
  </wpt>
  <wpt lat="-3.761340401819" lon="-38.482807842708">
    <name>WP041</name>
  </wpt>
  <wpt lat="-3.7611435118644" lon="-38.482827456275">
    <name>WP042</name>
  </wpt>
  <wpt lat="-3.7609466219099" lon="-38.482847069843">
    <name>WP043</name>
  </wpt>
  <wpt lat="-3.7608369" lon="-38.482858">
    <name>WP044</name>
  </wpt>
  <wpt lat="-3.7606408967669" lon="-38.482830897029">
    <name>WP045</name>
  </wpt>
  <wpt lat="-3.7604448935339" lon="-38.482803794058">
    <name>WP046</name>
  </wpt>
  <wpt lat="-3.7602488903008" lon="-38.482776691088">
    <name>WP047</name>
  </wpt>
  <wpt lat="-3.7600528870678" lon="-38.482749588117">
    <name>WP048</name>
  </wpt>
  <wpt lat="-3.7598568838347" lon="-38.482722485146">
    <name>WP049</name>
  </wpt>
  <wpt lat="-3.7596608806017" lon="-38.482695382175">
    <name>WP050</name>
  </wpt>
  <wpt lat="-3.7594648773686" lon="-38.482668279204">
    <name>WP051</name>
  </wpt>
  <wpt lat="-3.7592688741356" lon="-38.482641176234">
    <name>WP052</name>
  </wpt>
  <wpt lat="-3.7590728709025" lon="-38.482614073263">
    <name>WP053</name>
  </wpt>
  <wpt lat="-3.7588768676695" lon="-38.482586970292">
    <name>WP054</name>
  </wpt>
  <wpt lat="-3.7586808644364" lon="-38.482559867321">
    <name>WP055</name>
  </wpt>
  <wpt lat="-3.7584848612034" lon="-38.48253276435">
    <name>WP056</name>
  </wpt>
  <wpt lat="-3.7582888579703" lon="-38.48250566138">
    <name>WP057</name>
  </wpt>
  <wpt lat="-3.7580928547373" lon="-38.482478558409">
    <name>WP058</name>
  </wpt>
  <wpt lat="-3.7578968515042" lon="-38.482451455438">
    <name>WP059</name>
  </wpt>
  <wpt lat="-3.7577008482712" lon="-38.482424352467">
    <name>WP060</name>
  </wpt>
  <wpt lat="-3.7575048450381" lon="-38.482397249496">
    <name>WP061</name>
  </wpt>
  <wpt lat="-3.7573088418051" lon="-38.482370146526">
    <name>WP062</name>
  </wpt>
  <wpt lat="-3.757112838572" lon="-38.482343043555">
    <name>WP063</name>
  </wpt>
  <wpt lat="-3.756916835339" lon="-38.482315940584">
    <name>WP064</name>
  </wpt>
  <wpt lat="-3.7567208321059" lon="-38.482288837613">
    <name>WP065</name>
  </wpt>
  <wpt lat="-3.7565248288729" lon="-38.482261734642">
    <name>WP066</name>
  </wpt>
  <wpt lat="-3.7563288256398" lon="-38.482234631672">
    <name>WP067</name>
  </wpt>
  <wpt lat="-3.7561328224067" lon="-38.482207528701">
    <name>WP068</name>
  </wpt>
  <wpt lat="-3.7559368191737" lon="-38.48218042573">
    <name>WP069</name>
  </wpt>
  <wpt lat="-3.7557408159406" lon="-38.482153322759">
    <name>WP070</name>
  </wpt>
  <wpt lat="-3.7555448127076" lon="-38.482126219788">
    <name>WP071</name>
  </wpt>
  <wpt lat="-3.7553488094745" lon="-38.482099116818">
    <name>WP072</name>
  </wpt>
  <wpt lat="-3.7551528062415" lon="-38.482072013847">
    <name>WP073</name>
  </wpt>
  <wpt lat="-3.7549568030084" lon="-38.482044910876">
    <name>WP074</name>
  </wpt>
  <wpt lat="-3.7547607997754" lon="-38.482017807905">
    <name>WP075</name>
  </wpt>
  <wpt lat="-3.7545647965423" lon="-38.481990704934">
    <name>WP076</name>
  </wpt>
  <wpt lat="-3.7543687933093" lon="-38.481963601964">
    <name>WP077</name>
  </wpt>
  <wpt lat="-3.7541727900762" lon="-38.481936498993">
    <name>WP078</name>
  </wpt>
  <wpt lat="-3.7539767868432" lon="-38.481909396022">
    <name>WP079</name>
  </wpt>
  <wpt lat="-3.7537807836101" lon="-38.481882293051">
    <name>WP080</name>
  </wpt>
  <wpt lat="-3.7535847803771" lon="-38.48185519008">
    <name>WP081</name>
  </wpt>
  <wpt lat="-3.753388777144" lon="-38.48182808711">
    <name>WP082</name>
  </wpt>
  <wpt lat="-3.753192773911" lon="-38.481800984139">
    <name>WP083</name>
  </wpt>
  <wpt lat="-3.7529967706779" lon="-38.481773881168">
    <name>WP084</name>
  </wpt>
  <wpt lat="-3.7528007674449" lon="-38.481746778197">
    <name>WP085</name>
  </wpt>
  <wpt lat="-3.7526047642118" lon="-38.481719675226">
    <name>WP086</name>
  </wpt>
  <wpt lat="-3.7524087609788" lon="-38.481692572256">
    <name>WP087</name>
  </wpt>
  <wpt lat="-3.7522127577457" lon="-38.481665469285">
    <name>WP088</name>
  </wpt>
  <wpt lat="-3.7520167545126" lon="-38.481638366314">
    <name>WP089</name>
  </wpt>
  <wpt lat="-3.7518207512796" lon="-38.481611263343">
    <name>WP090</name>
  </wpt>
  <wpt lat="-3.7516247480465" lon="-38.481584160372">
    <name>WP091</name>
  </wpt>
  <wpt lat="-3.7514287448135" lon="-38.481557057402">
    <name>WP092</name>
  </wpt>
  <wpt lat="-3.7512327415804" lon="-38.481529954431">
    <name>WP093</name>
  </wpt>
  <wpt lat="-3.7510367383474" lon="-38.48150285146">
    <name>WP094</name>
  </wpt>
  <wpt lat="-3.7508407351143" lon="-38.481475748489">
    <name>WP095</name>
  </wpt>
  <wpt lat="-3.7506447318813" lon="-38.481448645518">
    <name>WP096</name>
  </wpt>
  <wpt lat="-3.7504487286482" lon="-38.481421542548">
    <name>WP097</name>
  </wpt>
  <wpt lat="-3.7502527254152" lon="-38.481394439577">
    <name>WP098</name>
  </wpt>
  <wpt lat="-3.7500567221821" lon="-38.481367336606">
    <name>WP099</name>
  </wpt>
  <wpt lat="-3.7498607189491" lon="-38.481340233635">
    <name>WP100</name>
  </wpt>
  <wpt lat="-3.749664715716" lon="-38.481313130664">
    <name>WP101</name>
  </wpt>
  <wpt lat="-3.749468712483" lon="-38.481286027693">
    <name>WP102</name>
  </wpt>
  <wpt lat="-3.7492747" lon="-38.4812592">
    <name>WP103</name>
  </wpt>
  <wpt lat="-3.7491054038021" lon="-38.481156572076">
    <name>WP104</name>
  </wpt>
  <wpt lat="-3.7489361076042" lon="-38.481053944153">
    <name>WP105</name>
  </wpt>
  <wpt lat="-3.7487668114063" lon="-38.480951316229">
    <name>WP106</name>
  </wpt>
  <wpt lat="-3.7485975152084" lon="-38.480848688305">
    <name>WP107</name>
  </wpt>
  <wpt lat="-3.7484282190105" lon="-38.480746060381">
    <name>WP108</name>
  </wpt>
  <wpt lat="-3.7482589228126" lon="-38.480643432458">
    <name>WP109</name>
  </wpt>
  <wpt lat="-3.7480896266146" lon="-38.480540804534">
    <name>WP110</name>
  </wpt>
  <wpt lat="-3.7479203304167" lon="-38.48043817661">
    <name>WP111</name>
  </wpt>
  <wpt lat="-3.7477510342188" lon="-38.480335548687">
    <name>WP112</name>
  </wpt>
  <wpt lat="-3.7475817380209" lon="-38.480232920763">
    <name>WP113</name>
  </wpt>
  <wpt lat="-3.747412441823" lon="-38.480130292839">
    <name>WP114</name>
  </wpt>
  <wpt lat="-3.7472431456251" lon="-38.480027664916">
    <name>WP115</name>
  </wpt>
  <wpt lat="-3.7471307" lon="-38.4799595">
    <name>WP116</name>
  </wpt>
  <wpt lat="-3.7471327703731" lon="-38.479761226688">
    <name>WP117</name>
  </wpt>
  <wpt lat="-3.7471348407461" lon="-38.479562953376">
    <name>WP118</name>
  </wpt>
  <wpt lat="-3.7471369111192" lon="-38.479364680065">
    <name>WP119</name>
  </wpt>
  <wpt lat="-3.7471389814922" lon="-38.479166406753">
    <name>WP120</name>
  </wpt>
  <wpt lat="-3.7471410518653" lon="-38.478968133441">
    <name>WP121</name>
  </wpt>
  <wpt lat="-3.7471431222384" lon="-38.478769860129">
    <name>WP122</name>
  </wpt>
  <wpt lat="-3.7471451926114" lon="-38.478571586817">
    <name>WP123</name>
  </wpt>
  <wpt lat="-3.7471472629845" lon="-38.478373313506">
    <name>WP124</name>
  </wpt>
  <wpt lat="-3.7471493333576" lon="-38.478175040194">
    <name>WP125</name>
  </wpt>
  <wpt lat="-3.7471514037306" lon="-38.477976766882">
    <name>WP126</name>
  </wpt>
  <wpt lat="-3.7471534741037" lon="-38.47777849357">
    <name>WP127</name>
  </wpt>
  <wpt lat="-3.7471555444767" lon="-38.477580220258">
    <name>WP128</name>
  </wpt>
  <wpt lat="-3.7471576148498" lon="-38.477381946947">
    <name>WP129</name>
  </wpt>
  <wpt lat="-3.7471596852229" lon="-38.477183673635">
    <name>WP130</name>
  </wpt>
  <wpt lat="-3.7471617555959" lon="-38.476985400323">
    <name>WP131</name>
  </wpt>
  <wpt lat="-3.747163825969" lon="-38.476787127011">
    <name>WP132</name>
  </wpt>
  <wpt lat="-3.7471658963421" lon="-38.476588853699">
    <name>WP133</name>
  </wpt>
  <wpt lat="-3.7471679667151" lon="-38.476390580388">
    <name>WP134</name>
  </wpt>
  <wpt lat="-3.7471700370882" lon="-38.476192307076">
    <name>WP135</name>
  </wpt>
  <wpt lat="-3.7471721074612" lon="-38.475994033764">
    <name>WP136</name>
  </wpt>
  <wpt lat="-3.7471741778343" lon="-38.475795760452">
    <name>WP137</name>
  </wpt>
  <wpt lat="-3.7471762482074" lon="-38.47559748714">
    <name>WP138</name>
  </wpt>
  <wpt lat="-3.7471779" lon="-38.4754393">
    <name>WP139</name>
  </wpt>
  <wpt lat="-3.7472387858559" lon="-38.475250636999">
    <name>WP140</name>
  </wpt>
  <wpt lat="-3.7472996717118" lon="-38.475061973998">
    <name>WP141</name>
  </wpt>
  <wpt lat="-3.7473605575677" lon="-38.474873310997">
    <name>WP142</name>
  </wpt>
  <wpt lat="-3.7474214434236" lon="-38.474684647995">
    <name>WP143</name>
  </wpt>
  <wpt lat="-3.7474823292795" lon="-38.474495984994">
    <name>WP144</name>
  </wpt>
  <wpt lat="-3.7475432151354" lon="-38.474307321993">
    <name>WP145</name>
  </wpt>
  <wpt lat="-3.7476041009913" lon="-38.474118658992">
    <name>WP146</name>
  </wpt>
  <wpt lat="-3.7476649868472" lon="-38.473929995991">
    <name>WP147</name>
  </wpt>
  <wpt lat="-3.7477258727031" lon="-38.47374133299">
    <name>WP148</name>
  </wpt>
  <wpt lat="-3.747786758559" lon="-38.473552669989">
    <name>WP149</name>
  </wpt>
  <wpt lat="-3.7478476444149" lon="-38.473364006987">
    <name>WP150</name>
  </wpt>
  <wpt lat="-3.7479085302708" lon="-38.473175343986">
    <name>WP151</name>
  </wpt>
  <wpt lat="-3.7479694161267" lon="-38.472986680985">
    <name>WP152</name>
  </wpt>
  <wpt lat="-3.7480303019826" lon="-38.472798017984">
    <name>WP153</name>
  </wpt>
  <wpt lat="-3.7480911878385" lon="-38.472609354983">
    <name>WP154</name>
  </wpt>
  <wpt lat="-3.7481520736945" lon="-38.472420691982">
    <name>WP155</name>
  </wpt>
  <wpt lat="-3.7482129595504" lon="-38.472232028981">
    <name>WP156</name>
  </wpt>
  <wpt lat="-3.7482738454063" lon="-38.472043365979">
    <name>WP157</name>
  </wpt>
  <wpt lat="-3.7483347312622" lon="-38.471854702978">
    <name>WP158</name>
  </wpt>
  <wpt lat="-3.7483956171181" lon="-38.471666039977">
    <name>WP159</name>
  </wpt>
  <wpt lat="-3.748456502974" lon="-38.471477376976">
    <name>WP160</name>
  </wpt>
  <wpt lat="-3.7485173888299" lon="-38.471288713975">
    <name>WP161</name>
  </wpt>
  <wpt lat="-3.7485782746858" lon="-38.471100050974">
    <name>WP162</name>
  </wpt>
  <wpt lat="-3.7486391605417" lon="-38.470911387973">
    <name>WP163</name>
  </wpt>
  <wpt lat="-3.7487000463976" lon="-38.470722724971">
    <name>WP164</name>
  </wpt>
  <wpt lat="-3.7487609322535" lon="-38.47053406197">
    <name>WP165</name>
  </wpt>
  <wpt lat="-3.7488218181094" lon="-38.470345398969">
    <name>WP166</name>
  </wpt>
  <wpt lat="-3.7488827039653" lon="-38.470156735968">
    <name>WP167</name>
  </wpt>
  <wpt lat="-3.7489435898212" lon="-38.469968072967">
    <name>WP168</name>
  </wpt>
  <wpt lat="-3.7490044756771" lon="-38.469779409966">
    <name>WP169</name>
  </wpt>
  <wpt lat="-3.749065361533" lon="-38.469590746965">
    <name>WP170</name>
  </wpt>
  <wpt lat="-3.7491262473889" lon="-38.469402083963">
    <name>WP171</name>
  </wpt>
  <wpt lat="-3.7491871332448" lon="-38.469213420962">
    <name>WP172</name>
  </wpt>
  <wpt lat="-3.7492480191007" lon="-38.469024757961">
    <name>WP173</name>
  </wpt>
  <wpt lat="-3.7493089049566" lon="-38.46883609496">
    <name>WP174</name>
  </wpt>
  <wpt lat="-3.7493697908125" lon="-38.468647431959">
    <name>WP175</name>
  </wpt>
  <wpt lat="-3.7494306766684" lon="-38.468458768958">
    <name>WP176</name>
  </wpt>
  <wpt lat="-3.7494915625243" lon="-38.468270105956">
    <name>WP177</name>
  </wpt>
  <wpt lat="-3.7495524483802" lon="-38.468081442955">
    <name>WP178</name>
  </wpt>
  <wpt lat="-3.7496133342361" lon="-38.467892779954">
    <name>WP179</name>
  </wpt>
  <wpt lat="-3.749674220092" lon="-38.467704116953">
    <name>WP180</name>
  </wpt>
  <wpt lat="-3.7496821" lon="-38.4676797">
    <name>WP181</name>
  </wpt>
  <wpt lat="-3.7494925493121" lon="-38.467622840148">
    <name>WP182</name>
  </wpt>
  <wpt lat="-3.7493029986243" lon="-38.467565980295">
    <name>WP183</name>
  </wpt>
  <wpt lat="-3.7491134479364" lon="-38.467509120443">
    <name>WP184</name>
  </wpt>
  <wpt lat="-3.7489238972486" lon="-38.467452260591">
    <name>WP185</name>
  </wpt>
  <wpt lat="-3.7487343465607" lon="-38.467395400738">
    <name>WP186</name>
  </wpt>
  <wpt lat="-3.7485447958729" lon="-38.467338540886">
    <name>WP187</name>
  </wpt>
  <wpt lat="-3.748355245185" lon="-38.467281681034">
    <name>WP188</name>
  </wpt>
  <wpt lat="-3.7481656944972" lon="-38.467224821181">
    <name>WP189</name>
  </wpt>
  <wpt lat="-3.7479761438093" lon="-38.467167961329">
    <name>WP190</name>
  </wpt>
  <wpt lat="-3.7477865931215" lon="-38.467111101477">
    <name>WP191</name>
  </wpt>
  <wpt lat="-3.7475970424336" lon="-38.467054241624">
    <name>WP192</name>
  </wpt>
  <wpt lat="-3.7474074917458" lon="-38.466997381772">
    <name>WP193</name>
  </wpt>
  <wpt lat="-3.7472179410579" lon="-38.46694052192">
    <name>WP194</name>
  </wpt>
  <wpt lat="-3.7470283903701" lon="-38.466883662068">
    <name>WP195</name>
  </wpt>
  <wpt lat="-3.7468388396822" lon="-38.466826802215">
    <name>WP196</name>
  </wpt>
  <wpt lat="-3.7466492889944" lon="-38.466769942363">
    <name>WP197</name>
  </wpt>
  <wpt lat="-3.7464958" lon="-38.4667239">
    <name>WP198</name>
  </wpt>
  <wpt lat="-3.746532529448" lon="-38.466529062065">
    <name>WP199</name>
  </wpt>
  <wpt lat="-3.7465692588961" lon="-38.46633422413">
    <name>WP200</name>
  </wpt>
  <wpt lat="-3.7466059883441" lon="-38.466139386195">
    <name>WP201</name>
  </wpt>
  <wpt lat="-3.7466427177921" lon="-38.46594454826">
    <name>WP202</name>
  </wpt>
  <wpt lat="-3.7466794472402" lon="-38.465749710325">
    <name>WP203</name>
  </wpt>
  <wpt lat="-3.7467161766882" lon="-38.46555487239">
    <name>WP204</name>
  </wpt>
  <wpt lat="-3.7467529061363" lon="-38.465360034455">
    <name>WP205</name>
  </wpt>
  <wpt lat="-3.7467896355843" lon="-38.46516519652">
    <name>WP206</name>
  </wpt>
  <wpt lat="-3.7468263650323" lon="-38.464970358585">
    <name>WP207</name>
  </wpt>
  <wpt lat="-3.7468630944804" lon="-38.46477552065">
    <name>WP208</name>
  </wpt>
  <wpt lat="-3.7468998239284" lon="-38.464580682716">
    <name>WP209</name>
  </wpt>
  <wpt lat="-3.7469365533764" lon="-38.464385844781">
    <name>WP210</name>
  </wpt>
  <wpt lat="-3.7469732828245" lon="-38.464191006846">
    <name>WP211</name>
  </wpt>
  <wpt lat="-3.7470100122725" lon="-38.463996168911">
    <name>WP212</name>
  </wpt>
  <wpt lat="-3.7470467417206" lon="-38.463801330976">
    <name>WP213</name>
  </wpt>
  <wpt lat="-3.7470834711686" lon="-38.463606493041">
    <name>WP214</name>
  </wpt>
  <wpt lat="-3.7471202006166" lon="-38.463411655106">
    <name>WP215</name>
  </wpt>
  <wpt lat="-3.7471569300647" lon="-38.463216817171">
    <name>WP216</name>
  </wpt>
  <wpt lat="-3.7471936595127" lon="-38.463021979236">
    <name>WP217</name>
  </wpt>
  <wpt lat="-3.7472303889607" lon="-38.462827141301">
    <name>WP218</name>
  </wpt>
  <wpt lat="-3.7472671184088" lon="-38.462632303366">
    <name>WP219</name>
  </wpt>
  <wpt lat="-3.7473038478568" lon="-38.462437465431">
    <name>WP220</name>
  </wpt>
  <wpt lat="-3.7473405773048" lon="-38.462242627496">
    <name>WP221</name>
  </wpt>
  <wpt lat="-3.7473773067529" lon="-38.462047789561">
    <name>WP222</name>
  </wpt>
  <wpt lat="-3.7474140362009" lon="-38.461852951626">
    <name>WP223</name>
  </wpt>
  <wpt lat="-3.747450765649" lon="-38.461658113691">
    <name>WP224</name>
  </wpt>
  <wpt lat="-3.747487495097" lon="-38.461463275756">
    <name>WP225</name>
  </wpt>
  <wpt lat="-3.747524224545" lon="-38.461268437821">
    <name>WP226</name>
  </wpt>
  <wpt lat="-3.7475609539931" lon="-38.461073599886">
    <name>WP227</name>
  </wpt>
  <wpt lat="-3.7475976834411" lon="-38.460878761951">
    <name>WP228</name>
  </wpt>
  <wpt lat="-3.7476344128891" lon="-38.460683924016">
    <name>WP229</name>
  </wpt>
  <wpt lat="-3.7476711423372" lon="-38.460489086082">
    <name>WP230</name>
  </wpt>
  <wpt lat="-3.7477078717852" lon="-38.460294248147">
    <name>WP231</name>
  </wpt>
  <wpt lat="-3.7477446012333" lon="-38.460099410212">
    <name>WP232</name>
  </wpt>
  <wpt lat="-3.7477813306813" lon="-38.459904572277">
    <name>WP233</name>
  </wpt>
  <wpt lat="-3.7478180601293" lon="-38.459709734342">
    <name>WP234</name>
  </wpt>
  <wpt lat="-3.7478547895774" lon="-38.459514896407">
    <name>WP235</name>
  </wpt>
  <wpt lat="-3.7478915190254" lon="-38.459320058472">
    <name>WP236</name>
  </wpt>
  <wpt lat="-3.7479282484734" lon="-38.459125220537">
    <name>WP237</name>
  </wpt>
  <wpt lat="-3.7479649779215" lon="-38.458930382602">
    <name>WP238</name>
  </wpt>
  <wpt lat="-3.7480017073695" lon="-38.458735544667">
    <name>WP239</name>
  </wpt>
  <wpt lat="-3.7480384368175" lon="-38.458540706732">
    <name>WP240</name>
  </wpt>
  <wpt lat="-3.7480751662656" lon="-38.458345868797">
    <name>WP241</name>
  </wpt>
  <wpt lat="-3.7481118957136" lon="-38.458151030862">
    <name>WP242</name>
  </wpt>
  <wpt lat="-3.7481486251617" lon="-38.457956192927">
    <name>WP243</name>
  </wpt>
  <wpt lat="-3.7481853546097" lon="-38.457761354992">
    <name>WP244</name>
  </wpt>
  <wpt lat="-3.7482220840577" lon="-38.457566517057">
    <name>WP245</name>
  </wpt>
  <wpt lat="-3.7482588135058" lon="-38.457371679122">
    <name>WP246</name>
  </wpt>
  <wpt lat="-3.7482955429538" lon="-38.457176841187">
    <name>WP247</name>
  </wpt>
  <wpt lat="-3.7483322724018" lon="-38.456982003252">
    <name>WP248</name>
  </wpt>
  <wpt lat="-3.7483690018499" lon="-38.456787165317">
    <name>WP249</name>
  </wpt>
  <wpt lat="-3.7484057312979" lon="-38.456592327382">
    <name>WP250</name>
  </wpt>
  <wpt lat="-3.748442460746" lon="-38.456397489448">
    <name>WP251</name>
  </wpt>
  <wpt lat="-3.748479190194" lon="-38.456202651513">
    <name>WP252</name>
  </wpt>
  <wpt lat="-3.748515919642" lon="-38.456007813578">
    <name>WP253</name>
  </wpt>
  <wpt lat="-3.7485526490901" lon="-38.455812975643">
    <name>WP254</name>
  </wpt>
  <wpt lat="-3.7485893785381" lon="-38.455618137708">
    <name>WP255</name>
  </wpt>
  <wpt lat="-3.7486261079861" lon="-38.455423299773">
    <name>WP256</name>
  </wpt>
  <wpt lat="-3.7486628374342" lon="-38.455228461838">
    <name>WP257</name>
  </wpt>
  <wpt lat="-3.7486995668822" lon="-38.455033623903">
    <name>WP258</name>
  </wpt>
  <wpt lat="-3.7487362963303" lon="-38.454838785968">
    <name>WP259</name>
  </wpt>
  <wpt lat="-3.7487730257783" lon="-38.454643948033">
    <name>WP260</name>
  </wpt>
  <wpt lat="-3.7488097552263" lon="-38.454449110098">
    <name>WP261</name>
  </wpt>
  <wpt lat="-3.7488464846744" lon="-38.454254272163">
    <name>WP262</name>
  </wpt>
  <wpt lat="-3.7488832141224" lon="-38.454059434228">
    <name>WP263</name>
  </wpt>
  <wpt lat="-3.7489108" lon="-38.4539131">
    <name>WP264</name>
  </wpt>
</gpx>